{
    "name": "Mission_output",
    "required": ["range","c_lift","c_rf"],
    "properties": {
        "range": {
            "type": "array"
        },
        "c_lift": {
            "type": "array"
        },
        "c_rf": {
            "type": "array"
        }
    },
    "$schema": "http://json-schema.org/draft-04/schema",
    "type": "object",
    "id": "#Mission_output"
}
