{
    "name": "PropaneReaction_input",
    "required": ["x_shared","y_1","y_2","y_3"],
    "properties": {
        "x_shared": {
            "items": {
                "type": "number",
                "id": "0"
            },
            "minItems": 4,
          	"maxItems": 4,
            "type": "array",
            "id": "x_shared"
        },
        "y_1": {
            "items": {
                "type": "number",
                "id": "0"
            },
            "minItems": 2,
          	"maxItems": 2,
            "type": "array",
            "id": "y_1"
        },
        "y_2": {
            "items": {
                "type": "number",
                "id": "0"
            },
            "minItems": 2,
          	"maxItems": 2,
            "type": "array",
            "id": "y_2"
        },
        "y_3": {
            "items": {
                "type": "number",
                "id": "0"
            },
            "minItems": 3,
          	"maxItems": 3,
            "type": "array",
            "id": "y_3"
        }
    },
    "$schema": "http://json-schema.org/draft-04/schema",
    "type": "object",
    "id": "#PropaneReaction_input"
}
